[gd_resource type="Environment" load_steps=2 format=2]

[sub_resource type="ProceduralSky" id=1]

ground_horizon_color = Color( 0.839216, 0.917647, 0.980392, 1 )
sun_color = Color( 0.976471, 0.921569, 0.631373, 1 )
sun_latitude = 43.12
sun_longitude = 138.05

[resource]

background_mode = 2
background_sky = SubResource( 1 )
ambient_light_color = Color( 0.192157, 0.345098, 0.611765, 1 )
ambient_light_energy = 0.23
fog_enabled = true
fog_color = Color( 0.839216, 0.917647, 0.980392, 1 )
fog_depth_end = 270.0
fog_depth_curve = 15.9999
dof_blur_far_enabled = true
dof_blur_far_distance = 150.0
dof_blur_far_transition = 0.5
dof_blur_far_amount = 0.08
dof_blur_far_quality = 0

