[gd_resource type="SpriteFrames" load_steps=4 format=2]

[ext_resource path="res://entity/sprite/lw_back_idle_0001.png" type="Texture" id=1]
[ext_resource path="res://entity/sprite/lw_back_idle_0002.png" type="Texture" id=2]
[ext_resource path="res://entity/sprite/lw_back_idle_0003.png" type="Texture" id=3]

[resource]

animations = [ {
"frames": [ ExtResource( 1 ), ExtResource( 2 ), ExtResource( 3 ) ],
"loop": true,
"name": "idle",
"speed": 5.0
} ]

