[gd_resource type="Animation" format=2]

[resource]

resource_name = "run"
length = 1.5
loop = true
step = 0.1
tracks/0/type = "value"
tracks/0/path = NodePath("pitch/camera/sight/arms/sprite:animation")
tracks/0/interp = 1
tracks/0/loop_wrap = true
tracks/0/imported = false
tracks/0/enabled = true
tracks/0/keys = {
"times": PoolRealArray( 0 ),
"transitions": PoolRealArray( 1 ),
"update": 1,
"values": [ "run" ]
}
tracks/1/type = "value"
tracks/1/path = NodePath("pitch/camera/sight/arms/sprite:frame")
tracks/1/interp = 1
tracks/1/loop_wrap = true
tracks/1/imported = false
tracks/1/enabled = true
tracks/1/keys = {
"times": PoolRealArray( 0, 0.4, 0.7, 1.3, 1.5 ),
"transitions": PoolRealArray( 1, 1, 1, 1, 1 ),
"update": 1,
"values": [ 0, 1, 2, 3, 4 ]
}
tracks/2/type = "value"
tracks/2/path = NodePath("pitch/camera/sight/arms/sprite:position")
tracks/2/interp = 2
tracks/2/loop_wrap = true
tracks/2/imported = false
tracks/2/enabled = true
tracks/2/keys = {
"times": PoolRealArray( 0, 0.1, 0.2, 0.3, 0.4, 0.5, 0.6, 0.7, 0.8, 0.9, 1, 1.1, 1.2, 1.3, 1.4, 1.5 ),
"transitions": PoolRealArray( 1, 1, 1, 1, 1, 1, 1, 1, 1, 1, 1, 1, 1, 1, 1, 1 ),
"update": 1,
"values": [ Vector2( 0, 0 ), Vector2( 3.54624, 27.183 ), Vector2( 7.97905, 61.1617 ), Vector2( 10.6387, 81.549 ), Vector2( 0, 0 ), Vector2( 37.8506, 50.871 ), Vector2( 68.472, 99.4983 ), Vector2( 0, 0 ), Vector2( -5.072, 37.0676 ), Vector2( -2.853, 95.8395 ), Vector2( 0, 149.978 ), Vector2( 0, 149.978 ), Vector2( 0, 74.9889 ), Vector2( 0, 0 ), Vector2( -0.22164, -6.38575 ), Vector2( 0, 9.53674e-07 ) ]
}
tracks/3/type = "value"
tracks/3/path = NodePath("pitch/camera/arms/left_arm:animation")
tracks/3/interp = 1
tracks/3/loop_wrap = true
tracks/3/imported = false
tracks/3/enabled = true
tracks/3/keys = {
"times": PoolRealArray( 0 ),
"transitions": PoolRealArray( 1 ),
"update": 1,
"values": [ "run" ]
}
tracks/4/type = "value"
tracks/4/path = NodePath("pitch/camera/arms/left_arm:frame")
tracks/4/interp = 1
tracks/4/loop_wrap = true
tracks/4/imported = false
tracks/4/enabled = true
tracks/4/keys = {
"times": PoolRealArray( 0, 0.4, 0.7, 1.3, 1.5 ),
"transitions": PoolRealArray( 1, 1, 1, 1, 1 ),
"update": 1,
"values": [ 0, 1, 2, 3, 4 ]
}
tracks/5/type = "value"
tracks/5/path = NodePath("pitch/camera/arms/left_arm:position")
tracks/5/interp = 2
tracks/5/loop_wrap = true
tracks/5/imported = false
tracks/5/enabled = true
tracks/5/keys = {
"times": PoolRealArray( 0, 0.1, 0.2, 0.3, 0.4, 0.5, 0.6, 0.7, 0.8, 0.9, 1, 1.1, 1.2, 1.3, 1.4, 1.5 ),
"transitions": PoolRealArray( 1, 1, 1, 1, 1, 1, 1, 1, 1, 1, 1, 1, 1, 1, 1, 1 ),
"update": 1,
"values": [ Vector2( 0, 0 ), Vector2( 3.54624, 27.183 ), Vector2( 7.97905, 61.1617 ), Vector2( 10.6387, 81.549 ), Vector2( 0, 0 ), Vector2( 37.8506, 50.871 ), Vector2( 68.472, 99.4983 ), Vector2( 0, 0 ), Vector2( -5.072, 37.0676 ), Vector2( -2.853, 95.8395 ), Vector2( 0, 149.978 ), Vector2( 0, 149.978 ), Vector2( 0, 74.9889 ), Vector2( 0, 0 ), Vector2( -0.22164, -6.38575 ), Vector2( 0, 9.53674e-07 ) ]
}

